%YAML 1.1
%TAG !u! tag:unity3d.com,2011:
--- !u!114 &11400000
MonoBehaviour:
  m_ObjectHideFlags: 0
  m_CorrespondingSourceObject: {fileID: 0}
  m_PrefabInstance: {fileID: 0}
  m_PrefabAsset: {fileID: 0}
  m_GameObject: {fileID: 0}
  m_Enabled: 1
  m_EditorHideFlags: 0
  m_Script: {fileID: 11500000, guid: e0d6a14b9de2db243aa58438af43632e, type: 3}
  m_Name: Goal01
  m_EditorClassIdentifier: 
  questId: 0
  id: 1
  type: 2
  questDescription: Bring the hazelnuts back to Squirrel
  collectableItemTag: 
  currentAmount: 0
  goalAmount: 0
  destinationNpcId: 0
  destinationConvo: {fileID: 0}
  delivered: 0
  available: 0
  requirements: []
  hidden: 1
