%YAML 1.1
%TAG !u! tag:unity3d.com,2011:
--- !u!114 &11400000
MonoBehaviour:
  m_ObjectHideFlags: 0
  m_CorrespondingSourceObject: {fileID: 0}
  m_PrefabInstance: {fileID: 0}
  m_PrefabAsset: {fileID: 0}
  m_GameObject: {fileID: 0}
  m_Enabled: 1
  m_EditorHideFlags: 0
  m_Script: {fileID: 11500000, guid: 67a2f0ee18aff9b41ba06b1a8c2601ce, type: 3}
  m_Name: Rabbit_Greetings
  m_EditorClassIdentifier: 
  id: -1
  type: 0
  sentences:
  - ...
  - EEEEEEK !
  - A SLIME !
  - Oh ? You're small.. and inoffensive.
  - I'm Rabbit, nice to meet you.
