%YAML 1.1
%TAG !u! tag:unity3d.com,2011:
--- !u!114 &11400000
MonoBehaviour:
  m_ObjectHideFlags: 0
  m_CorrespondingSourceObject: {fileID: 0}
  m_PrefabInstance: {fileID: 0}
  m_PrefabAsset: {fileID: 0}
  m_GameObject: {fileID: 0}
  m_Enabled: 1
  m_EditorHideFlags: 0
  m_Script: {fileID: 11500000, guid: 7748bcdb567b6844490814d650926b0b, type: 3}
  m_Name: Quest3
  m_EditorClassIdentifier: 
  npcId: 2
  questId: 3
  mainQuest: 1
  title: The Deep Forest's growling
  description: A strange atmosphere reigns deep in the Deep Forest. Owl wants you
    to find informations and report back to him so you can learn more about the situation.
  startQuestConvo: {fileID: 11400000, guid: 59d0607526852c242a436ca270643197, type: 2}
  endQuestConvo: {fileID: 11400000, guid: 1aa972873bcb9b14c8ec0bc1d6e206e4, type: 2}
  status: 0
  goalDatas:
  - {fileID: 11400000, guid: a64a48d7ac84dea4dab6dfef84c0c12a, type: 2}
  - {fileID: 11400000, guid: 4a8c795339ec02b4193df362b77daae4, type: 2}
  requirements:
  - {fileID: 11400000, guid: 018c4ae137e2a7e4d8b2dc7c4030224c, type: 2}
